{
  "goodsList": [
    {
      "id": 2,
      "defaultImg": "/images/mobile01.png",
      "title": "Apple iPhone 11 (A2223)",
      "price": 5499,
      "createTime": null,
      "tmId": null,
      "tmName": null,
      "category1Id": null,
      "category1Name": null,
      "category2Id": null,
      "category2Name": null,
      "category3Id": null,
      "category3Name": null,
      "hotScore": 0,
      "attrs": null
    },
    {
      "id": 2,
      "defaultImg": "/images/mobile02.png",
      "title": "Apple iPhone 11 (A2223)",
      "price": 5499,
      "createTime": null,
      "tmId": null,
      "tmName": null,
      "category1Id": null,
      "category1Name": null,
      "category2Id": null,
      "category2Name": null,
      "category3Id": null,
      "category3Name": null,
      "hotScore": 0,
      "attrs": null
    },
    {
      "id": 2,
      "defaultImg": "/images/mobile03.png",
      "title": "Apple iPhone 11 (A2223)",
      "price": 5499,
      "createTime": null,
      "tmId": null,
      "tmName": null,
      "category1Id": null,
      "category1Name": null,
      "category2Id": null,
      "category2Name": null,
      "category3Id": null,
      "category3Name": null,
      "hotScore": 0,
      "attrs": null
    },
    {
      "id": 2,
      "defaultImg": "/images/mobile04.png",
      "title": "Apple iPhone 11 (A2223)",
      "price": 5499,
      "createTime": null,
      "tmId": null,
      "tmName": null,
      "category1Id": null,
      "category1Name": null,
      "category2Id": null,
      "category2Name": null,
      "category3Id": null,
      "category3Name": null,
      "hotScore": 0,
      "attrs": null
    },
    {
      "id": 2,
      "defaultImg": "/images/mobile05.png",
      "title": "Apple iPhone 11 (A2223)",
      "price": 5499,
      "createTime": null,
      "tmId": null,
      "tmName": null,
      "category1Id": null,
      "category1Name": null,
      "category2Id": null,
      "category2Name": null,
      "category3Id": null,
      "category3Name": null,
      "hotScore": 0,
      "attrs": null
    },
    {
      "id": 2,
      "defaultImg": "/images/mobile06.png",
      "title": "Apple iPhone 11 (A2223)",
      "price": 5499,
      "createTime": null,
      "tmId": null,
      "tmName": null,
      "category1Id": null,
      "category1Name": null,
      "category2Id": null,
      "category2Name": null,
      "category3Id": null,
      "category3Name": null,
      "hotScore": 0,
      "attrs": null
    }
  ],
  "trademarkList": [
    {
      "tmId": 1,
      "tmName": "苹果"
    },
    {
      "tmId": 2,
      "tmName": "小米"
    },
    {
      "tmId": 3,
      "tmName": "华为"
    },
    {
      "tmId": 4,
      "tmName": "vivo"
    },
    {
      "tmId": 5,
      "tmName": "oppo"
    },
    {
      "tmId": 6,
      "tmName": "魅族"
    }
  ],
  "attrsList": [
    {
      "attrId": 1,
      "attrValueList": ["4500-11999", "2800-4499"],
      "attrName": "价格"
    }
  ],
  "total": 8,
  "pageSize": 2,
  "pageNo": 1,
  "totalPages": 4
}
